%YAML 1.1
%TAG !u! tag:unity3d.com,2011:
--- !u!129 &1
PlayerSettings:
  m_ObjectHideFlags: 0
  serializedVersion: 14
  productGUID: 118e1e40572d354469d0486b3ecfcefe
  AndroidProfiler: 0
  AndroidFilterTouchesWhenObscured: 0
  defaultScreenOrientation: 0
  targetDevice: 2
  useOnDemandResources: 0
  accelerometerFrequency: 60
  companyName: SKC
  productName: Cerveja 12
  defaultCursor: {fileID: 0}
  cursorHotspot: {x: 0, y: 0}
  m_SplashScreenBackgroundColor: {r: 0.13725491, g: 0.12156863, b: 0.1254902, a: 1}
  m_ShowUnitySplashScreen: 0
  m_ShowUnitySplashLogo: 0
  m_SplashScreenOverlayOpacity: 1
  m_SplashScreenAnimation: 0
  m_SplashScreenLogoStyle: 1
  m_SplashScreenDrawMode: 0
  m_SplashScreenBackgroundAnimationZoom: 1
  m_SplashScreenLogoAnimationZoom: 1
  m_SplashScreenBackgroundLandscapeAspect: 1
  m_SplashScreenBackgroundPortraitAspect: 1
  m_SplashScreenBackgroundLandscapeUvs:
    serializedVersion: 2
    x: 0
    y: 0
    width: 1
    height: 1
  m_SplashScreenBackgroundPortraitUvs:
    serializedVersion: 2
    x: 0
    y: 0
    width: 1
    height: 1
  m_SplashScreenLogos: []
  m_VirtualRealitySplashScreen: {fileID: 2800000, guid: 42ed72acb59a1eb4fbc2eb3a6f310a88,
    type: 3}
  m_HolographicTrackingLossScreen: {fileID: 0}
  defaultScreenWidth: 1024
  defaultScreenHeight: 768
  defaultScreenWidthWeb: 960
  defaultScreenHeightWeb: 600
  m_StereoRenderingPath: 0
  m_ActiveColorSpace: 0
  m_MTRendering: 1
  m_StackTraceTypes: 010000000100000001000000010000000100000001000000
  iosShowActivityIndicatorOnLoading: -1
  androidShowActivityIndicatorOnLoading: 2
  tizenShowActivityIndicatorOnLoading: -1
  iosAppInBackgroundBehavior: 0
  displayResolutionDialog: 1
  iosAllowHTTPDownload: 1
  allowedAutorotateToPortrait: 1
  allowedAutorotateToPortraitUpsideDown: 1
  allowedAutorotateToLandscapeRight: 1
  allowedAutorotateToLandscapeLeft: 1
  useOSAutorotation: 1
  use32BitDisplayBuffer: 1
  preserveFramebufferAlpha: 0
  disableDepthAndStencilBuffers: 0
  androidBlitType: 0
  defaultIsFullScreen: 1
  defaultIsNativeResolution: 1
  macRetinaSupport: 1
  runInBackground: 0
  captureSingleScreen: 0
  muteOtherAudioSources: 0
  Prepare IOS For Recording: 0
  Force IOS Speakers When Recording: 0
  deferSystemGesturesMode: 0
  hideHomeButton: 0
  submitAnalytics: 1
  usePlayerLog: 1
  bakeCollisionMeshes: 0
  forceSingleInstance: 0
  resizableWindow: 0
  useMacAppStoreValidation: 0
  macAppStoreCategory: public.app-category.games
  gpuSkinning: 0
  graphicsJobs: 0
  xboxPIXTextureCapture: 0
  xboxEnableAvatar: 0
  xboxEnableKinect: 0
  xboxEnableKinectAutoTracking: 0
  xboxEnableFitness: 0
  visibleInBackground: 0
  allowFullscreenSwitch: 1
  graphicsJobMode: 0
  macFullscreenMode: 2
  d3d11FullscreenMode: 1
  xboxSpeechDB: 0
  xboxEnableHeadOrientation: 0
  xboxEnableGuest: 0
  xboxEnablePIXSampling: 0
  metalFramebufferOnly: 0
  n3dsDisableStereoscopicView: 0
  n3dsEnableSharedListOpt: 1
  n3dsEnableVSync: 0
  xboxOneResolution: 0
  xboxOneSResolution: 0
  xboxOneXResolution: 3
  xboxOneMonoLoggingLevel: 0
  xboxOneLoggingLevel: 1
  xboxOneDisableEsram: 0
  xboxOnePresentImmediateThreshold: 0
  videoMemoryForVertexBuffers: 0
  psp2PowerMode: 0
  psp2AcquireBGM: 1
  wiiUTVResolution: 0
  wiiUGamePadMSAA: 1
  wiiUSupportsNunchuk: 0
  wiiUSupportsClassicController: 0
  wiiUSupportsBalanceBoard: 0
  wiiUSupportsMotionPlus: 0
  wiiUSupportsProController: 0
  wiiUAllowScreenCapture: 1
  wiiUControllerCount: 0
  m_SupportedAspectRatios:
    4:3: 1
    5:4: 1
    16:10: 1
    16:9: 1
    Others: 1
  bundleVersion: 1.4
  preloadedAssets: []
  metroInputSource: 0
  wsaTransparentSwapchain: 0
  m_HolographicPauseOnTrackingLoss: 1
  xboxOneDisableKinectGpuReservation: 0
  xboxOneEnable7thCore: 0
  vrSettings:
    cardboard:
      depthFormat: 0
      enableTransitionView: 0
    daydream:
      depthFormat: 0
      useSustainedPerformanceMode: 0
      enableVideoLayer: 0
      useProtectedVideoMemory: 0
      minimumSupportedHeadTracking: 0
      maximumSupportedHeadTracking: 1
    hololens:
      depthFormat: 1
      depthBufferSharingEnabled: 0
    oculus:
      sharedDepthBuffer: 0
      dashSupport: 0
  protectGraphicsMemory: 1
  useHDRDisplay: 0
  m_ColorGamuts: 00000000
  targetPixelDensity: 30
  resolutionScalingMode: 0
  androidSupportedAspectRatio: 1
  androidMaxAspectRatio: 2.1
  applicationIdentifier:
    Android: com.skc.cerveja12
    Standalone: unity.Panini Brasil.Panini Brasil FC
    Tizen: com.paninibrasil.brasilfc
    iOS: com.paninibrasil.brasilfc
    tvOS: com.paninibrasil.brasilfc
  buildNumber:
    iOS: 0
  AndroidBundleVersionCode: 12
  AndroidMinSdkVersion: 21
  AndroidTargetSdkVersion: 0
  AndroidPreferredInstallLocation: 1
  aotOptions: 
  stripEngineCode: 1
  iPhoneStrippingLevel: 0
  iPhoneScriptCallOptimization: 0
  ForceInternetPermission: 0
  ForceSDCardPermission: 1
  CreateWallpaper: 0
  APKExpansionFiles: 0
  keepLoadedShadersAlive: 1
  StripUnusedMeshComponents: 0
  VertexChannelCompressionMask:
    serializedVersion: 2
    m_Bits: 238
  iPhoneSdkVersion: 988
  iOSTargetOSVersionString: 7.0
  tvOSSdkVersion: 0
  tvOSRequireExtendedGameController: 0
  tvOSTargetOSVersionString: 9.0
  uIPrerenderedIcon: 0
  uIRequiresPersistentWiFi: 0
  uIRequiresFullScreen: 1
  uIStatusBarHidden: 1
  uIExitOnSuspend: 0
  uIStatusBarStyle: 0
  iPhoneSplashScreen: {fileID: 2800000, guid: 9d4e9998e3c7d8a4785ca8410e03c2f1, type: 3}
  iPhoneHighResSplashScreen: {fileID: 2800000, guid: 9d4e9998e3c7d8a4785ca8410e03c2f1,
    type: 3}
  iPhoneTallHighResSplashScreen: {fileID: 2800000, guid: 9d4e9998e3c7d8a4785ca8410e03c2f1,
    type: 3}
  iPhone47inSplashScreen: {fileID: 2800000, guid: 9d4e9998e3c7d8a4785ca8410e03c2f1,
    type: 3}
  iPhone55inPortraitSplashScreen: {fileID: 2800000, guid: 9d4e9998e3c7d8a4785ca8410e03c2f1,
    type: 3}
  iPhone55inLandscapeSplashScreen: {fileID: 2800000, guid: 9d4e9998e3c7d8a4785ca8410e03c2f1,
    type: 3}
  iPhone58inPortraitSplashScreen: {fileID: 0}
  iPhone58inLandscapeSplashScreen: {fileID: 0}
  iPadPortraitSplashScreen: {fileID: 2800000, guid: 9d4e9998e3c7d8a4785ca8410e03c2f1,
    type: 3}
  iPadHighResPortraitSplashScreen: {fileID: 2800000, guid: 9d4e9998e3c7d8a4785ca8410e03c2f1,
    type: 3}
  iPadLandscapeSplashScreen: {fileID: 2800000, guid: 9d4e9998e3c7d8a4785ca8410e03c2f1,
    type: 3}
  iPadHighResLandscapeSplashScreen: {fileID: 2800000, guid: 9d4e9998e3c7d8a4785ca8410e03c2f1,
    type: 3}
  appleTVSplashScreen: {fileID: 0}
  appleTVSplashScreen2x: {fileID: 0}
  tvOSSmallIconLayers: []
  tvOSSmallIconLayers2x: []
  tvOSLargeIconLayers: []
  tvOSLargeIconLayers2x: []
  tvOSTopShelfImageLayers: []
  tvOSTopShelfImageLayers2x: []
  tvOSTopShelfImageWideLayers: []
  tvOSTopShelfImageWideLayers2x: []
  iOSLaunchScreenType: 1
  iOSLaunchScreenPortrait: {fileID: 2800000, guid: 9d4e9998e3c7d8a4785ca8410e03c2f1,
    type: 3}
  iOSLaunchScreenLandscape: {fileID: 2800000, guid: 9d4e9998e3c7d8a4785ca8410e03c2f1,
    type: 3}
  iOSLaunchScreenBackgroundColor:
    serializedVersion: 2
    rgba: 0
  iOSLaunchScreenFillPct: 100
  iOSLaunchScreenSize: 100
  iOSLaunchScreenCustomXibPath: 
  iOSLaunchScreeniPadType: 1
  iOSLaunchScreeniPadImage: {fileID: 2800000, guid: 9d4e9998e3c7d8a4785ca8410e03c2f1,
    type: 3}
  iOSLaunchScreeniPadBackgroundColor:
    serializedVersion: 2
    rgba: 0
  iOSLaunchScreeniPadFillPct: 100
  iOSLaunchScreeniPadSize: 100
  iOSLaunchScreeniPadCustomXibPath: 
  iOSUseLaunchScreenStoryboard: 0
  iOSLaunchScreenCustomStoryboardPath: 
  iOSDeviceRequirements: []
  iOSURLSchemes: []
  iOSBackgroundModes: 0
  iOSMetalForceHardShadows: 0
  metalEditorSupport: 1
  metalAPIValidation: 1
  iOSRenderExtraFrameOnPause: 1
  appleDeveloperTeamID: 
  iOSManualSigningProvisioningProfileID: 
  tvOSManualSigningProvisioningProfileID: 
  appleEnableAutomaticSigning: 0
  clonedFromGUID: 00000000000000000000000000000000
  AndroidTargetDevice: 3
  AndroidSplashScreenScale: 2
  androidSplashScreen: {fileID: 2800000, guid: 42ed72acb59a1eb4fbc2eb3a6f310a88, type: 3}
  AndroidKeystoreName: D:/Realidade Aumentada/Clientes Arquivos/Cerveja 12/Clube12_KeyStore.keystore
  AndroidKeyaliasName: cerveja12
  AndroidTVCompatibility: 0
  AndroidIsGame: 1
  AndroidEnableTango: 0
  androidEnableBanner: 1
  androidUseLowAccuracyLocation: 0
  m_AndroidBanners:
  - width: 320
    height: 180
    banner: {fileID: 0}
  androidGamepadSupportLevel: 0
  resolutionDialogBanner: {fileID: 0}
  m_BuildTargetIcons:
  - m_BuildTarget: 
    m_Icons:
    - serializedVersion: 2
      m_Icon: {fileID: 2800000, guid: 62f26a64ba8e8fb48bd9f0850305dada, type: 3}
      m_Width: 128
      m_Height: 128
      m_Kind: 0
  - m_BuildTarget: Android
    m_Icons:
    - serializedVersion: 2
      m_Icon: {fileID: 2800000, guid: 6ca7da9e85a4d004aa275c9f130c3f1e, type: 3}
      m_Width: 192
      m_Height: 192
      m_Kind: 0
    - serializedVersion: 2
      m_Icon: {fileID: 2800000, guid: 8c21fa4ed8f101f4d9bbc4df3fb15475, type: 3}
      m_Width: 144
      m_Height: 144
      m_Kind: 0
    - serializedVersion: 2
      m_Icon: {fileID: 2800000, guid: eb2a98e72c0e9e14da6d756ca731644e, type: 3}
      m_Width: 96
      m_Height: 96
      m_Kind: 0
    - serializedVersion: 2
      m_Icon: {fileID: 2800000, guid: 1ccf2b42b55db2642a4434305d2ecdc9, type: 3}
      m_Width: 72
      m_Height: 72
      m_Kind: 0
    - serializedVersion: 2
      m_Icon: {fileID: 2800000, guid: 377b2ba7293869a47925339e995cf60f, type: 3}
      m_Width: 48
      m_Height: 48
      m_Kind: 0
    - serializedVersion: 2
      m_Icon: {fileID: 2800000, guid: 71676846bf2909343888bca037ff1525, type: 3}
      m_Width: 36
      m_Height: 36
      m_Kind: 0
  m_BuildTargetBatching: []
  m_BuildTargetGraphicsAPIs:
  - m_BuildTarget: AndroidPlayer
    m_APIs: 08000000
    m_Automatic: 0
  m_BuildTargetVRSettings:
  - m_BuildTarget: Android
    m_Enabled: 0
    m_Devices:
    - Oculus
  - m_BuildTarget: Metro
    m_Enabled: 0
    m_Devices: []
  - m_BuildTarget: N3DS
    m_Enabled: 0
    m_Devices: []
  - m_BuildTarget: PS3
    m_Enabled: 0
    m_Devices: []
  - m_BuildTarget: PS4
    m_Enabled: 0
    m_Devices:
    - PlayStationVR
  - m_BuildTarget: PSM
    m_Enabled: 0
    m_Devices: []
  - m_BuildTarget: PSP2
    m_Enabled: 0
    m_Devices: []
  - m_BuildTarget: SamsungTV
    m_Enabled: 0
    m_Devices: []
  - m_BuildTarget: Standalone
    m_Enabled: 0
    m_Devices:
    - Oculus
  - m_BuildTarget: Tizen
    m_Enabled: 0
    m_Devices: []
  - m_BuildTarget: WebGL
    m_Enabled: 0
    m_Devices: []
  - m_BuildTarget: WebPlayer
    m_Enabled: 0
    m_Devices: []
  - m_BuildTarget: WiiU
    m_Enabled: 0
    m_Devices: []
  - m_BuildTarget: Xbox360
    m_Enabled: 0
    m_Devices: []
  - m_BuildTarget: XboxOne
    m_Enabled: 0
    m_Devices: []
  - m_BuildTarget: iOS
    m_Enabled: 0
    m_Devices: []
  - m_BuildTarget: tvOS
    m_Enabled: 0
    m_Devices: []
  m_BuildTargetEnableVuforiaSettings:
  - m_BuildTarget: Android
    m_Enabled: 1
  openGLRequireES31: 0
  openGLRequireES31AEP: 0
  m_TemplateCustomTags: {}
  mobileMTRendering:
    iPhone: 1
    tvOS: 1
  m_BuildTargetGroupLightmapEncodingQuality:
  - m_BuildTarget: Standalone
    m_EncodingQuality: 1
  - m_BuildTarget: XboxOne
    m_EncodingQuality: 1
  - m_BuildTarget: PS4
    m_EncodingQuality: 1
  wiiUTitleID: 0005000011000000
  wiiUGroupID: 00010000
  wiiUCommonSaveSize: 4096
  wiiUAccountSaveSize: 2048
  wiiUOlvAccessKey: 0
  wiiUTinCode: 0
  wiiUJoinGameId: 0
  wiiUJoinGameModeMask: 0000000000000000
  wiiUCommonBossSize: 0
  wiiUAccountBossSize: 0
  wiiUAddOnUniqueIDs: []
  wiiUMainThreadStackSize: 3072
  wiiULoaderThreadStackSize: 1024
  wiiUSystemHeapSize: 128
  wiiUTVStartupScreen: {fileID: 0}
  wiiUGamePadStartupScreen: {fileID: 0}
  wiiUDrcBufferDisabled: 0
  wiiUProfilerLibPath: 
  playModeTestRunnerEnabled: 0
  actionOnDotNetUnhandledException: 1
  enableInternalProfiler: 0
  logObjCUncaughtExceptions: 1
  enableCrashReportAPI: 0
  cameraUsageDescription: Camera access required for target detection and tracking
  locationUsageDescription: 
  microphoneUsageDescription: 
  switchNetLibKey: 
  switchSocketMemoryPoolSize: 6144
  switchSocketAllocatorPoolSize: 128
  switchSocketConcurrencyLimit: 14
  switchScreenResolutionBehavior: 2
  switchUseCPUProfiler: 0
  switchApplicationID: 0x0005000C10000001
  switchNSODependencies: 
  switchTitleNames_0: 
  switchTitleNames_1: 
  switchTitleNames_2: 
  switchTitleNames_3: 
  switchTitleNames_4: 
  switchTitleNames_5: 
  switchTitleNames_6: 
  switchTitleNames_7: 
  switchTitleNames_8: 
  switchTitleNames_9: 
  switchTitleNames_10: 
  switchTitleNames_11: 
  switchTitleNames_12: 
  switchTitleNames_13: 
  switchTitleNames_14: 
  switchPublisherNames_0: 
  switchPublisherNames_1: 
  switchPublisherNames_2: 
  switchPublisherNames_3: 
  switchPublisherNames_4: 
  switchPublisherNames_5: 
  switchPublisherNames_6: 
  switchPublisherNames_7: 
  switchPublisherNames_8: 
  switchPublisherNames_9: 
  switchPublisherNames_10: 
  switchPublisherNames_11: 
  switchPublisherNames_12: 
  switchPublisherNames_13: 
  switchPublisherNames_14: 
  switchIcons_0: {fileID: 0}
  switchIcons_1: {fileID: 0}
  switchIcons_2: {fileID: 0}
  switchIcons_3: {fileID: 0}
  switchIcons_4: {fileID: 0}
  switchIcons_5: {fileID: 0}
  switchIcons_6: {fileID: 0}
  switchIcons_7: {fileID: 0}
  switchIcons_8: {fileID: 0}
  switchIcons_9: {fileID: 0}
  switchIcons_10: {fileID: 0}
  switchIcons_11: {fileID: 0}
  switchIcons_12: {fileID: 0}
  switchIcons_13: {fileID: 0}
  switchIcons_14: {fileID: 0}
  switchSmallIcons_0: {fileID: 0}
  switchSmallIcons_1: {fileID: 0}
  switchSmallIcons_2: {fileID: 0}
  switchSmallIcons_3: {fileID: 0}
  switchSmallIcons_4: {fileID: 0}
  switchSmallIcons_5: {fileID: 0}
  switchSmallIcons_6: {fileID: 0}
  switchSmallIcons_7: {fileID: 0}
  switchSmallIcons_8: {fileID: 0}
  switchSmallIcons_9: {fileID: 0}
  switchSmallIcons_10: {fileID: 0}
  switchSmallIcons_11: {fileID: 0}
  switchSmallIcons_12: {fileID: 0}
  switchSmallIcons_13: {fileID: 0}
  switchSmallIcons_14: {fileID: 0}
  switchManualHTML: 
  switchAccessibleURLs: 
  switchLegalInformation: 
  switchMainThreadStackSize: 1048576
  switchPresenceGroupId: 0x0005000C10000001
  switchLogoHandling: 0
  switchReleaseVersion: 0
  switchDisplayVersion: 1.0.0
  switchStartupUserAccount: 0
  switchTouchScreenUsage: 0
  switchSupportedLanguagesMask: 0
  switchLogoType: 0
  switchApplicationErrorCodeCategory: 
  switchUserAccountSaveDataSize: 0
  switchUserAccountSaveDataJournalSize: 0
  switchApplicationAttribute: 0
  switchCardSpecSize: 4
  switchCardSpecClock: 25
  switchRatingsMask: 0
  switchRatingsInt_0: 0
  switchRatingsInt_1: 0
  switchRatingsInt_2: 0
  switchRatingsInt_3: 0
  switchRatingsInt_4: 0
  switchRatingsInt_5: 0
  switchRatingsInt_6: 0
  switchRatingsInt_7: 0
  switchRatingsInt_8: 0
  switchRatingsInt_9: 0
  switchRatingsInt_10: 0
  switchRatingsInt_11: 0
  switchLocalCommunicationIds_0: 0x0005000C10000001
  switchLocalCommunicationIds_1: 
  switchLocalCommunicationIds_2: 
  switchLocalCommunicationIds_3: 
  switchLocalCommunicationIds_4: 
  switchLocalCommunicationIds_5: 
  switchLocalCommunicationIds_6: 
  switchLocalCommunicationIds_7: 
  switchParentalControl: 0
  switchAllowsScreenshot: 1
  switchAllowsVideoCapturing: 1
  switchAllowsRuntimeAddOnContentInstall: 0
  switchDataLossConfirmation: 0
  switchSupportedNpadStyles: 3
  switchSocketConfigEnabled: 0
  switchTcpInitialSendBufferSize: 32
  switchTcpInitialReceiveBufferSize: 64
  switchTcpAutoSendBufferSizeMax: 256
  switchTcpAutoReceiveBufferSizeMax: 256
  switchUdpSendBufferSize: 9
  switchUdpReceiveBufferSize: 42
  switchSocketBufferEfficiency: 4
  switchSocketInitializeEnabled: 1
  switchNetworkInterfaceManagerInitializeEnabled: 1
  switchPlayerConnectionEnabled: 1
  ps4NPAgeRating: 12
  ps4NPTitleSecret: 
  ps4NPTrophyPackPath: 
  ps4ParentalLevel: 1
  ps4ContentID: ED1633-NPXX51362_00-0000000000000000
  ps4Category: 0
  ps4MasterVersion: 01.00
  ps4AppVersion: 01.00
  ps4AppType: 0
  ps4ParamSfxPath: 
  ps4VideoOutPixelFormat: 0
  ps4VideoOutInitialWidth: 1920
  ps4VideoOutBaseModeInitialWidth: 1920
  ps4VideoOutReprojectionRate: 120
  ps4PronunciationXMLPath: 
  ps4PronunciationSIGPath: 
  ps4BackgroundImagePath: 
  ps4StartupImagePath: 
  ps4StartupImagesFolder: 
  ps4IconImagesFolder: 
  ps4SaveDataImagePath: 
  ps4SdkOverride: 
  ps4BGMPath: 
  ps4ShareFilePath: 
  ps4ShareOverlayImagePath: 
  ps4PrivacyGuardImagePath: 
  ps4NPtitleDatPath: 
  ps4RemotePlayKeyAssignment: -1
  ps4RemotePlayKeyMappingDir: 
  ps4PlayTogetherPlayerCount: 0
  ps4EnterButtonAssignment: 1
  ps4ApplicationParam1: 0
  ps4ApplicationParam2: 0
  ps4ApplicationParam3: 0
  ps4ApplicationParam4: 0
  ps4DownloadDataSize: 0
  ps4GarlicHeapSize: 2048
  ps4ProGarlicHeapSize: 2560
  ps4Passcode: frAQBc8Wsa1xVPfvJcrgRYwTiizs2trQ
  ps4pnSessions: 1
  ps4pnPresence: 1
  ps4pnFriends: 1
  ps4pnGameCustomData: 1
  playerPrefsSupport: 0
  restrictedAudioUsageRights: 0
  ps4UseResolutionFallback: 0
  ps4ReprojectionSupport: 0
  ps4UseAudio3dBackend: 0
  ps4SocialScreenEnabled: 0
  ps4ScriptOptimizationLevel: 3
  ps4Audio3dVirtualSpeakerCount: 14
  ps4attribCpuUsage: 0
  ps4PatchPkgPath: 
  ps4PatchLatestPkgPath: 
  ps4PatchChangeinfoPath: 
  ps4PatchDayOne: 0
  ps4attribUserManagement: 0
  ps4attribMoveSupport: 0
  ps4attrib3DSupport: 0
  ps4attribShareSupport: 0
  ps4attribExclusiveVR: 0
  ps4disableAutoHideSplash: 0
  ps4videoRecordingFeaturesUsed: 0
  ps4contentSearchFeaturesUsed: 0
  ps4attribEyeToEyeDistanceSettingVR: 0
  ps4IncludedModules: []
  monoEnv: 
  psp2Splashimage: {fileID: 0}
  psp2NPTrophyPackPath: 
  psp2NPSupportGBMorGJP: 0
  psp2NPAgeRating: 12
  psp2NPTitleDatPath: 
  psp2NPCommsID: 
  psp2NPCommunicationsID: 
  psp2NPCommsPassphrase: 
  psp2NPCommsSig: 
  psp2ParamSfxPath: 
  psp2ManualPath: 
  psp2LiveAreaGatePath: 
  psp2LiveAreaBackroundPath: 
  psp2LiveAreaPath: 
  psp2LiveAreaTrialPath: 
  psp2PatchChangeInfoPath: 
  psp2PatchOriginalPackage: 
  psp2PackagePassword: F69AzBlax3CF3EDNhm3soLBPh71Yexui
  psp2KeystoneFile: 
  psp2MemoryExpansionMode: 0
  psp2DRMType: 0
  psp2StorageType: 0
  psp2MediaCapacity: 0
  psp2DLCConfigPath: 
  psp2ThumbnailPath: 
  psp2BackgroundPath: 
  psp2SoundPath: 
  psp2TrophyCommId: 
  psp2TrophyPackagePath: 
  psp2PackagedResourcesPath: 
  psp2SaveDataQuota: 10240
  psp2ParentalLevel: 1
  psp2ShortTitle: Not Set
  psp2ContentID: IV0000-ABCD12345_00-0123456789ABCDEF
  psp2Category: 0
  psp2MasterVersion: 01.00
  psp2AppVersion: 01.00
  psp2TVBootMode: 0
  psp2EnterButtonAssignment: 2
  psp2TVDisableEmu: 0
  psp2AllowTwitterDialog: 1
  psp2Upgradable: 0
  psp2HealthWarning: 0
  psp2UseLibLocation: 0
  psp2InfoBarOnStartup: 0
  psp2InfoBarColor: 0
  psp2ScriptOptimizationLevel: 0
  psmSplashimage: {fileID: 0}
  splashScreenBackgroundSourceLandscape: {fileID: 21300000, guid: 42ed72acb59a1eb4fbc2eb3a6f310a88,
    type: 3}
  splashScreenBackgroundSourcePortrait: {fileID: 0}
  spritePackerPolicy: 
  webGLMemorySize: 256
  webGLExceptionSupport: 1
  webGLNameFilesAsHashes: 0
  webGLDataCaching: 0
  webGLDebugSymbols: 0
  webGLEmscriptenArgs: 
  webGLModulesDirectory: 
  webGLTemplate: APPLICATION:Default
  webGLAnalyzeBuildSize: 0
  webGLUseEmbeddedResources: 0
  webGLUseWasm: 0
  webGLCompressionFormat: 1
  scriptingDefineSymbols:
    4: VUFORIA_IOS_SETTINGS
    7: VUFORIA_ANDROID_SETTINGS;VUFORIA_SAMPLE_ORIENTATION_SETTINGS
    14: VUFORIA_WSA_SETTINGS
  platformArchitecture:
    iOS: 2
  scriptingBackend:
    Android: 0
    Metro: 2
    Standalone: 0
    WP8: 2
    WebGL: 1
    WebPlayer: 0
    iOS: 1
  incrementalIl2cppBuild: {}
  additionalIl2CppArgs: 
  scriptingRuntimeVersion: 0
  apiCompatibilityLevelPerPlatform: {}
  m_RenderingPath: 1
  m_MobileRenderingPath: 1
  metroPackageName: Panini Brasil FC
  metroPackageVersion: 
  metroCertificatePath: 
  metroCertificatePassword: 
  metroCertificateSubject: 
  metroCertificateIssuer: 
  metroCertificateNotAfter: 0000000000000000
  metroApplicationDescription: Panini Brasil FC
  wsaImages: {}
  metroTileShortName: 
  metroCommandLineArgsFile: 
  metroTileShowName: 0
  metroMediumTileShowName: 0
  metroLargeTileShowName: 0
  metroWideTileShowName: 0
  metroDefaultTileSize: 1
  metroTileForegroundText: 1
  metroTileBackgroundColor: {r: 0, g: 0, b: 0, a: 1}
  metroSplashScreenBackgroundColor: {r: 0, g: 0, b: 0, a: 1}
  metroSplashScreenUseBackgroundColor: 0
  platformCapabilities:
    WindowsStoreApps:
      InternetClient: True
      Microphone: True
      WebCam: True
  metroFTAName: 
  metroFTAFileTypes: []
  metroProtocolName: 
  metroCompilationOverrides: 1
  tizenProductDescription: 
  tizenProductURL: 
  tizenSigningProfileName: 
  tizenGPSPermissions: 0
  tizenMicrophonePermissions: 0
  tizenDeploymentTarget: 
  tizenDeploymentTargetType: -1
  tizenMinOSVersion: 1
  n3dsUseExtSaveData: 0
  n3dsCompressStaticMem: 1
  n3dsExtSaveDataNumber: 0x12345
  n3dsStackSize: 131072
  n3dsTargetPlatform: 2
  n3dsRegion: 7
  n3dsMediaSize: 0
  n3dsLogoStyle: 3
  n3dsTitle: GameName
  n3dsProductCode: 
  n3dsApplicationId: 0xFF3FF
  XboxOneProductId: 
  XboxOneUpdateKey: 
  XboxOneSandboxId: 
  XboxOneContentId: 
  XboxOneTitleId: 
  XboxOneSCId: 
  XboxOneGameOsOverridePath: 
  XboxOnePackagingOverridePath: 
  XboxOneAppManifestOverridePath: 
  XboxOnePackageEncryption: 0
  XboxOnePackageUpdateGranularity: 2
  XboxOneDescription: 
  XboxOneLanguage:
  - enus
  XboxOneCapability: []
  XboxOneGameRating: {}
  XboxOneIsContentPackage: 0
  XboxOneEnableGPUVariability: 0
  XboxOneSockets: {}
  XboxOneSplashScreen: {fileID: 0}
  XboxOneAllowedProductIds: []
  XboxOnePersistentLocalStorageSize: 0
  xboxOneScriptCompiler: 0
  vrEditorSettings:
    daydream:
      daydreamIconForeground: {fileID: 0}
      daydreamIconBackground: {fileID: 0}
  cloudServicesEnabled:
    Analytics: 0
    Build: 0
    Collab: 1
    ErrorHub: 0
    Game_Performance: 0
    Hub: 0
    Purchasing: 0
    UNet: 1
    Unity_Ads: 0
  facebookSdkVersion: 7.9.1
  apiCompatibilityLevel: 2
  cloudProjectId: f77ece78-1219-42dd-8128-950aca931d22
  projectName: Cerveja 12
  organizationId: rafaelsouza3526
  cloudEnabled: 0
  enableNativePlatformBackendsForNewInputSystem: 0
  disableOldInputManagerSupport: 0
